<?xml version="1.0" encoding="UTF-8" standalone="no"?>
<!-- Created with Inkscape (http://www.inkscape.org/) -->

<svg
   xmlns:dc="http://purl.org/dc/elements/1.1/"
   xmlns:cc="http://creativecommons.org/ns#"
   xmlns:rdf="http://www.w3.org/1999/02/22-rdf-syntax-ns#"
   xmlns:svg="http://www.w3.org/2000/svg"
   xmlns="http://www.w3.org/2000/svg"
   xmlns:sodipodi="http://sodipodi.sourceforge.net/DTD/sodipodi-0.dtd"
   xmlns:inkscape="http://www.inkscape.org/namespaces/inkscape"
   width="52"
   height="52"
   viewBox="0 0 13.758332 13.758334"
   version="1.1"
   id="svg5823"
   inkscape:version="0.92.3 (2405546, 2018-03-11)"
   sodipodi:docname="logo.svg">
  <defs
     id="defs5817" />
  <sodipodi:namedview
     id="base"
     pagecolor="#ffffff"
     bordercolor="#666666"
     borderopacity="1.0"
     inkscape:pageopacity="0.0"
     inkscape:pageshadow="2"
     inkscape:zoom="9.5852253"
     inkscape:cx="44.907847"
     inkscape:cy="23.220046"
     inkscape:document-units="px"
     inkscape:current-layer="layer1"
     showgrid="true"
     units="px"
     fit-margin-top="-0.05"
     fit-margin-left="-0.05"
     fit-margin-right="-0.05"
     fit-margin-bottom="-0.05"
     inkscape:pagecheckerboard="false"
     inkscape:snap-grids="true"
     showguides="false"
     inkscape:window-width="1680"
     inkscape:window-height="930"
     inkscape:window-x="0"
     inkscape:window-y="27"
     inkscape:window-maximized="1"
     inkscape:snap-global="true"
     inkscape:snap-bbox="true"
     inkscape:bbox-nodes="true"
     inkscape:object-paths="false"
     inkscape:object-nodes="false"
     inkscape:snap-smooth-nodes="false"
     inkscape:snap-intersection-paths="false"
     inkscape:snap-nodes="false"
     inkscape:bbox-paths="true">
    <inkscape:grid
       type="xygrid"
       id="grid5825"
       empspacing="4"
       originx="-2.6364785"
       originy="-2.6364868" />
  </sodipodi:namedview>
  <metadata
     id="metadata5820">
    <rdf:RDF>
      <cc:Work
         rdf:about="">
        <dc:format>image/svg+xml</dc:format>
        <dc:type
           rdf:resource="http://purl.org/dc/dcmitype/StillImage" />
        <dc:title></dc:title>
      </cc:Work>
    </rdf:RDF>
  </metadata>
  <g
     inkscape:label="keylines"
     inkscape:groupmode="layer"
     id="layer1"
     style="display:inline;opacity:0.70999995"
     transform="translate(-7.4083333,-275.83331)"
     sodipodi:insensitive="true">
    <circle
       style="opacity:0.58699999;fill:none;fill-opacity:1;fill-rule:nonzero;stroke:#000000;stroke-width:0.02645833;stroke-linecap:round;stroke-miterlimit:4;stroke-dasharray:none;stroke-dashoffset:0;stroke-opacity:1"
       id="path5831"
       cx="14.2875"
       cy="282.71249"
       r="6.8791666" />
    <circle
       style="opacity:0.58699999;fill:none;fill-opacity:1;fill-rule:nonzero;stroke:#000000;stroke-width:0.02645833;stroke-linecap:round;stroke-miterlimit:4;stroke-dasharray:none;stroke-dashoffset:0;stroke-opacity:1"
       id="path5833"
       cx="14.2875"
       cy="282.71249"
       r="4.7624998" />
    <rect
       style="opacity:0.58699999;fill:none;fill-opacity:1;fill-rule:nonzero;stroke:#000000;stroke-width:0.02645833;stroke-linecap:round;stroke-miterlimit:4;stroke-dasharray:none;stroke-dashoffset:0;stroke-opacity:1"
       id="rect5835"
       width="11.641666"
       height="11.641666"
       x="8.4666672"
       y="276.89163"
       rx="1.0583333"
       ry="1.0583333" />
    <rect
       style="opacity:0.58699999;fill:none;fill-opacity:1;fill-rule:nonzero;stroke:#000000;stroke-width:0.02645833;stroke-linecap:round;stroke-miterlimit:4;stroke-dasharray:none;stroke-dashoffset:0;stroke-opacity:1"
       id="rect5837"
       width="13.758333"
       height="9.5249996"
       x="7.4083333"
       y="277.94998"
       rx="1.0583333"
       ry="1.0583333" />
    <rect
       style="opacity:0.58699999;fill:none;fill-opacity:1;fill-rule:nonzero;stroke:#000000;stroke-width:0.02645833;stroke-linecap:round;stroke-miterlimit:4;stroke-dasharray:none;stroke-dashoffset:0;stroke-opacity:1"
       id="rect5839"
       width="9.5249996"
       height="13.758333"
       x="9.5249996"
       y="275.83331"
       rx="1.0583333"
       ry="1.0583333" />
    <rect
       style="opacity:0.58699999;fill:none;fill-opacity:1;fill-rule:nonzero;stroke:#000000;stroke-width:0.02645833;stroke-linecap:round;stroke-miterlimit:4;stroke-dasharray:none;stroke-dashoffset:0;stroke-opacity:1"
       id="rect5843"
       width="19.049999"
       height="19.049999"
       x="4.7625003"
       y="273.18747"
       rx="1.0583333"
       ry="1.0583333" />
    <path
       style="fill:none;fill-rule:evenodd;stroke:#000000;stroke-width:0.02645833;stroke-linecap:butt;stroke-linejoin:miter;stroke-miterlimit:4;stroke-dasharray:none;stroke-opacity:1"
       d="m 0,296.99998 28.575,-28.575"
       id="path5847"
       inkscape:connector-curvature="0" />
    <path
       style="fill:none;fill-rule:evenodd;stroke:#000000;stroke-width:0.02645833;stroke-linecap:butt;stroke-linejoin:miter;stroke-miterlimit:4;stroke-dasharray:none;stroke-opacity:1"
       d="m 0,268.42498 28.575,28.575"
       id="path5849"
       inkscape:connector-curvature="0" />
    <path
       style="fill:none;fill-rule:evenodd;stroke:#000000;stroke-width:0.02645833;stroke-linecap:butt;stroke-linejoin:miter;stroke-miterlimit:4;stroke-dasharray:none;stroke-opacity:1"
       d="m 14.2875,268.42498 v 23.8125"
       id="path5851"
       inkscape:connector-curvature="0" />
    <path
       style="fill:none;fill-rule:evenodd;stroke:#000000;stroke-width:0.02645833;stroke-linecap:butt;stroke-linejoin:miter;stroke-miterlimit:4;stroke-dasharray:none;stroke-opacity:1"
       d="M 0,282.71248 H 28.575"
       id="path5855"
       inkscape:connector-curvature="0" />
  </g>
  <g
     inkscape:groupmode="layer"
     id="layer2"
     inkscape:label="layer 1"
     style="display:inline"
     transform="translate(-7.4083333,-7.4083251)">
    <path
       style="font-style:normal;font-variant:normal;font-weight:bold;font-stretch:normal;font-size:13.47192383px;line-height:125%;font-family:'Ubuntu Mono';-inkscape-font-specification:'Ubuntu Mono, Bold';font-variant-ligatures:normal;font-variant-caps:normal;font-variant-numeric:normal;font-feature-settings:normal;text-align:start;letter-spacing:5.05197096px;word-spacing:0px;writing-mode:lr-tb;text-anchor:start;fill:#000000;fill-opacity:1;stroke:none;stroke-width:1.27293754px;stroke-linecap:butt;stroke-linejoin:miter;stroke-opacity:1"
       d="M 55.5,28 V 48.835938 C 53.311223,48.073006 51.308757,47.994709 49.617188,48 c -2.074065,0.0065 -4.04349,0.278428 -5.910157,0.833984 -1.866667,0.527781 -3.526667,1.429253 -4.978515,2.707032 C 37.276662,52.791015 36.115251,54.444447 35.244141,56.5 34.414512,58.527777 34,61.041016 34,64.041016 c 0,3.083338 0.498585,5.653427 1.494141,7.708984 0.995555,2.027777 2.342226,3.652776 4.042968,4.875 1.742223,1.249999 3.795714,2.124991 6.160157,2.625 2.364442,0.500024 4.91652,0.75 7.654296,0.75 0.746669,0 1.409492,-0.01305 1.990235,-0.04102 0.62222,-0.02782 1.223948,-0.06944 1.804687,-0.125 0.58074,-0.02782 1.161448,-0.08467 1.742188,-0.167968 0.580739,-0.05552 1.224503,-0.138882 1.929687,-0.25 l -0.685547,-3.625 c -0.33185,0.08334 -1.057735,0.195086 -2.177734,0.333984 -1.119999,0.138898 -2.653884,0.208984 -4.603516,0.208984 -2.613331,0 -4.812,-0.265191 -6.595703,-0.792968 -1.742222,-0.527777 -3.15195,-1.291013 -4.230468,-2.291016 -1.037038,-1.027778 -1.78394,-2.291016 -2.240235,-3.791016 -0.414803,-1.5 -0.623047,-3.223526 -0.623047,-5.167968 0,-2.472227 0.248315,-4.513894 0.746094,-6.125 0.539259,-1.63889 1.246075,-2.943793 2.117188,-3.916016 0.912593,-0.972223 1.968911,-1.652125 3.171875,-2.041016 1.244439,-0.388875 2.55103,-0.583984 3.919922,-0.583984 1.908143,0 3.359907,0.374998 4.355468,1.125 0.99555,0.722222 1.494141,1.610462 1.494141,2.666016 V 56.08398 C 54.305314,55.945087 53.331114,55.875 52.542969,55.875 c -1.742223,0 -3.215006,0.22157 -4.417969,0.666016 -1.161483,0.444446 -2.116613,1.056206 -2.863281,1.833984 -0.746665,0.749998 -1.285345,1.638237 -1.617188,2.666016 -0.290381,1.027774 -0.435547,2.1263 -0.435547,3.292968 0,1.583335 0.269335,2.929907 0.808594,4.041016 0.580743,1.083334 1.36968,1.971569 2.365234,2.666016 0.995558,0.666667 2.156971,1.166683 3.484376,1.5 C 51.236076,72.846579 52.708859,73 54.285156,73 c 1.078519,0 2.34307,-0.07009 3.794922,-0.208984 C 59.573407,72.62435 60.879997,72.389521 62,72.083984 62,58.389323 62,44.694661 62,31 c 5.131737,-0.399556 8.349012,5.48196 4,18 l 5,2 C 78.787494,35.349433 70.055689,28 62,28 Z m -1.837891,32.125 c 0.290378,0 0.580713,0.01305 0.871094,0.04102 0.290374,0.02782 0.601751,0.06944 0.933594,0.125 V 68.625 c -0.62222,0.08338 -1.202928,0.125 -1.742188,0.125 -0.829632,0 -1.513471,-0.138258 -2.052734,-0.416016 -0.497783,-0.305556 -0.893213,-0.680554 -1.183594,-1.125 -0.290381,-0.444442 -0.496671,-0.944443 -0.621093,-1.5 -0.08285,-0.555556 -0.125,-1.097219 -0.125,-1.625 -10e-7,-0.472221 0.06304,-0.94575 0.1875,-1.417968 0.124452,-0.472222 0.330712,-0.888904 0.621093,-1.25 0.29037,-0.388887 0.683866,-0.69378 1.181641,-0.916016 0.497779,-0.249978 1.141535,-0.375 1.929687,-0.375 z"
       transform="scale(0.26458333)"
       id="path5920"
       inkscape:connector-curvature="0"
       sodipodi:nodetypes="ccccccscccscccccsscccscccscscscccscccscccccscscccscccccccs" />
  </g>
</svg>
